I(mA), U(V)
401.8, 4.019 
347.9, 3.478
301.0, 3.010
273.4, 2.734
240.7, 2.407
200.7, 2.007
153.1, 1.531
95.3, 0.955
70.9, 0.708
48.92, 0.490
28.08, 0.281
13.76, 0.137
24.69, 0.247
13.76, 0.137
18.10, 0.181
21.04, 0.210
15.90, 0.159
12.03, 0.120
10.04, 0.101
8.08, 0.081
5.99, 0.060
3.69, 0.037
0.98, 0.011
